﻿{
  "iisSettings": {
    "windowsAuthentication": false,
    "anonymousAuthentication": true,
    "iisExpress": {
      "applicationUrl": "http://localhost:6620",
      "sslPort": 44322
    }
  },
  "profiles": {
    "ITProaser.Account": {
      "commandName": "Project",
      "launchBrowser": false,
      "applicationUrl": "https://localhost:7209;http://localhost:5139",
      "environmentVariables": {
        "ASPNETCORE_ENVIRONMENT": "Development"
      }
    },
    "IIS Express": {
      "commandName": "IISExpress",
      "launchBrowser": false,
      "environmentVariables": {
        "ASPNETCORE_ENVIRONMENT": "Development"
      }
    }
  }
}
